%YAML 1.1
%TAG !u! tag:unity3d.com,2011:
--- !u!1045 &1
EditorBuildSettings:
  m_ObjectHideFlags: 0
  serializedVersion: 2
  m_Scenes:
  - enabled: 1
    path: Assets/Prototypes/WorldGeneration/World gen.unity
    guid: 74a02298a45065b4eac8a3ca243f40bd
  m_configObjects: {}
